Intro: An lm for Everyone • metrics.in.r
…
      Source: vignettes/art/intro-lm.Rmd
      intro-lm.Rmd

A data frame for everyone

R is fundamentally different from Stata in that you can work with more than one dataset at a time. In Stata, the use command loads a single dataset into memory. In R, you create a data frame and save it to a variable. You can have as many data frames loaded as you want.

The haven package in R can be used to load Stata .dta files. An example is below. Note that the system.file() command locates a .dta file that I have included with this package. This code loads the HTV.DTA file included with this package and saves it as a variable named htv. You can see from the output that htv is a “tibble” which is another name for a data frame.

library(haven)
htv <- read_dta(system.file("HTV.DTA", package = "metrics.in.r"))
htv
#> # A tibble: 1,230 × 23
#>     wage   abil  educ    ne    nc  west south exper motheduc fatheduc brkhme14
#>    <dbl>  <dbl> <dbl> <dbl> <dbl> <dbl> <dbl> <dbl>    <dbl>    <dbl>    <dbl>
#>  1 12.0   5.03     15     0     0     1     0     9       12       12        0
#>  2  8.91  2.04     13     1     0     0     0     8       12       10        1
#>  3 15.5   2.48     15     1     0     0     0    11       12       16        0
#>  4 13.3   3.61     15     1     0     0     0     6       12       12        0
#>  5 11.1   2.64     13     1     0     0     0    15       12       15        1
#>  6 17.5   3.47     18     1     0     0     0     8       12       12        0
#>  7 21.1  -1.76     13     1     0     0     0    13       13       12        0
#>  8 11.7  -0.134    12     0     0     0     1    14       12       12        1
#>  9 17.0   2.07     13     1     0     0     0     9       10       12        1
#> 10 11.5  -0.338    12     1     0     0     0     9       14       12        0
#> # … with 1,220 more rows, and 12 more variables: sibs <dbl>, urban <dbl>,
#> #   ne18 <dbl>, nc18 <dbl>, south18 <dbl>, west18 <dbl>, urban18 <dbl>,
#> #   tuit17 <dbl>, tuit18 <dbl>, lwage <dbl>, expersq <dbl>, ctuit <dbl>
#> # ℹ Use `print(n = ...)` to see more rows, and `colnames()` to see all variable names
…
